## Title: Incanter's Flow Tracker
## Version: 1.1
## Author: Seam0re
## Interface: 70100
## Notes: Usage: UnitIncantersFlow(), or /ift to toggle the display frame.
## SavedVariablesPerCharacter: IFTSettings

incantersflowtracker.xml
